[gd_scene load_steps=8 format=2]

[ext_resource path="res://src/Block/Block.tscn" type="PackedScene" id=1]
[ext_resource path="res://asset/images/square.png" type="Texture" id=2]
[ext_resource path="res://asset/fonts/PixelRPG.ttf" type="DynamicFontData" id=3]
[ext_resource path="res://src/Block/CellNumber.gd" type="Script" id=4]



[sub_resource type="DynamicFont" id=1]
size = 64
font_data = ExtResource( 3 )

[sub_resource type="RectangleShape2D" id=2]
extents = Vector2( 80, 85 )

[sub_resource type="Animation" id=3]
resource_name = "shrink"
tracks/0/type = "value"
tracks/0/path = NodePath("Sprite/Label:modulate")
tracks/0/interp = 1
tracks/0/loop_wrap = true
tracks/0/imported = false
tracks/0/enabled = true
tracks/0/keys = {
"times": PoolRealArray( 0, 1 ),
"transitions": PoolRealArray( 1, 1 ),
"update": 0,
"values": [ Color( 1, 1, 1, 1 ), Color( 1, 1, 1, 0 ) ]
}

[node name="CellNumber" instance=ExtResource( 1 )]
position = Vector2( 693.982, 507.069 )
script = ExtResource( 4 )
remaining_touches = 1

[node name="Sprite" parent="." index="0"]
texture = ExtResource( 2 )

[node name="Label" type="Label" parent="Sprite" index="0"]
anchor_left = 0.5
anchor_top = 0.5
anchor_right = 0.5
anchor_bottom = 0.5
margin_left = -150.0
margin_top = -160.0
margin_right = -10.0
margin_bottom = -10.0
custom_fonts/font = SubResource( 1 )
align = 1
valign = 1
uppercase = true
__meta__ = {
"_edit_use_anchors_": false
}

[node name="CollisionShape2D" parent="." index="1"]
shape = SubResource( 2 )

[node name="AnimationPlayer" type="AnimationPlayer" parent="." index="3"]
anims/shrink = SubResource( 3 )
[connection signal="area_entered" from="." to="." method="_on_area_entered"]
[connection signal="area_exited" from="." to="." method="_on_area_exited"]
